[
    {
        "index": 0,
        "isActive": true,
        "age": 22,
        "name": "Finley Mckay",
        "company": "LUMBREX",
        "email": "finleymckay@lumbrex.com",
        "phone": "+1 (964) 587-2356",
        "address": "963 Bijou Avenue, Navarre, Rhode Island, 1714",
        "registered": "2020-07-27T01:12:54 -06:-30",
        "latitude": -36.246781,
        "longitude": -48.675707,
        "friends": [
            {
                "id": 0,
                "name": "Marissa Moon"
            },
            {
                "id": 1,
                "name": "Marguerite Hinton"
            },
            {
                "id": 2,
                "name": "Francis Barry"
            }
        ],
        "greeting": "Hello, Finley Mckay! You have 6 unread messages."
    },
    {
        "index": 1,
        "isActive": true,
        "age": 20,
        "name": "Manuela Suarez",
        "company": "KINETICA",
        "email": "manuelasuarez@kinetica.com",
        "phone": "+1 (924) 467-2937",
        "address": "410 Bayview Place, Hannasville, South Dakota, 1912",
        "registered": "2015-12-24T11:57:02 -06:-30",
        "latitude": -43.030223,
        "longitude": -154.955403,
        "friends": [
            {
                "id": 0,
                "name": "Polly Kim"
            },
            {
                "id": 1,
                "name": "Jimmie Lynn"
            },
            {
                "id": 2,
                "name": "Elaine Parks"
            }
        ],
        "greeting": "Hello, Manuela Suarez! You have 3 unread messages."
    },
    {
        "index": 2,
        "isActive": true,
        "age": 27,
        "name": "Cindy Flores",
        "company": "SURELOGIC",
        "email": "cindyflores@surelogic.com",
        "phone": "+1 (978) 482-3471",
        "address": "870 Glenmore Avenue, Fulford, Maine, 9288",
        "registered": "2016-06-05T09:04:50 -06:-30",
        "latitude": -78.120053,
        "longitude": -4.760553,
        "friends": [
            {
                "id": 0,
                "name": "Ebony Strickland"
            },
            {
                "id": 1,
                "name": "Adrienne Burch"
            },
            {
                "id": 2,
                "name": "Willa Lewis"
            }
        ],
        "greeting": "Hello, Cindy Flores! You have 4 unread messages."
    },
    {
        "index": 3,
        "isActive": false,
        "age": 36,
        "name": "Sheree Lopez",
        "company": "ZANILLA",
        "email": "shereelopez@zanilla.com",
        "phone": "+1 (965) 442-3507",
        "address": "615 Lake Place, Nescatunga, Palau, 8200",
        "registered": "2019-08-03T10:34:29 -06:-30",
        "latitude": 30.048354,
        "longitude": 39.6293,
        "friends": [
            {
                "id": 0,
                "name": "Concetta Harrell"
            },
            {
                "id": 1,
                "name": "Meagan Morin"
            },
            {
                "id": 2,
                "name": "Rae Serrano"
            }
        ],
        "greeting": "Hello, Sheree Lopez! You have 8 unread messages."
    },
    {
        "index": 4,
        "isActive": true,
        "age": 30,
        "name": "Callie Kelley",
        "company": "ANIXANG",
        "email": "calliekelley@anixang.com",
        "phone": "+1 (929) 526-2861",
        "address": "160 Gem Street, Hemlock, Kentucky, 4160",
        "registered": "2019-11-03T12:51:15 -06:-30",
        "latitude": -22.577516,
        "longitude": -123.712546,
        "friends": [
            {
                "id": 0,
                "name": "Sharpe Cline"
            },
            {
                "id": 1,
                "name": "Maxwell Sanchez"
            },
            {
                "id": 2,
                "name": "Felicia Guerrero"
            }
        ],
        "greeting": "Hello, Callie Kelley! You have 1 unread messages."
    },
    {
        "index": 5,
        "isActive": false,
        "age": 40,
        "name": "Elnora Simon",
        "company": "PANZENT",
        "email": "elnorasimon@panzent.com",
        "phone": "+1 (878) 549-2838",
        "address": "375 Boynton Place, Brandermill, Nevada, 1111",
        "registered": "2014-06-26T06:44:30 -06:-30",
        "latitude": -0.41318,
        "longitude": -111.600313,
        "friends": [
            {
                "id": 0,
                "name": "Mcmahon Mccarty"
            },
            {
                "id": 1,
                "name": "Harrell Cook"
            },
            {
                "id": 2,
                "name": "Erika Carr"
            }
        ],
        "greeting": "Hello, Elnora Simon! You have 8 unread messages."
    },
    {
        "index": 6,
        "isActive": false,
        "age": 29,
        "name": "Kirsten Gould",
        "company": "TRANSLINK",
        "email": "kirstengould@translink.com",
        "phone": "+1 (943) 559-2460",
        "address": "612 Elizabeth Place, Craig, Tennessee, 7890",
        "registered": "2017-03-02T06:23:26 -06:-30",
        "latitude": -40.944181,
        "longitude": 12.268109,
        "friends": [
            {
                "id": 0,
                "name": "Salinas Bentley"
            },
            {
                "id": 1,
                "name": "Kelly Wilkins"
            },
            {
                "id": 2,
                "name": "Pamela Zamora"
            }
        ],
        "greeting": "Hello, Kirsten Gould! You have 8 unread messages."
    },
    {
        "index": 7,
        "isActive": false,
        "age": 39,
        "name": "Vance Ashley",
        "company": "MIXERS",
        "email": "vanceashley@mixers.com",
        "phone": "+1 (957) 498-3789",
        "address": "842 Bay Parkway, Juarez, New Mexico, 8814",
        "registered": "2018-05-25T09:47:09 -06:-30",
        "latitude": 86.280004,
        "longitude": 65.527732,
        "friends": [
            {
                "id": 0,
                "name": "Anthony Roach"
            },
            {
                "id": 1,
                "name": "Bowman Miller"
            },
            {
                "id": 2,
                "name": "Walls Yates"
            }
        ],
        "greeting": "Hello, Vance Ashley! You have 2 unread messages."
    },
    {
        "index": 8,
        "isActive": false,
        "age": 25,
        "name": "Weiss Hart",
        "company": "APPLIDECK",
        "email": "weisshart@applideck.com",
        "phone": "+1 (916) 511-3431",
        "address": "637 Williams Court, Vallonia, Idaho, 7609",
        "registered": "2019-09-02T04:56:25 -06:-30",
        "latitude": 31.255433,
        "longitude": -42.293271,
        "friends": [
            {
                "id": 0,
                "name": "Collier Chang"
            },
            {
                "id": 1,
                "name": "Sandy Wade"
            },
            {
                "id": 2,
                "name": "Rosemary Moses"
            }
        ],
        "greeting": "Hello, Weiss Hart! You have 4 unread messages."
    },
    {
        "index": 9,
        "isActive": true,
        "age": 37,
        "name": "Dale Park",
        "company": "HOUSEDOWN",
        "email": "dalepark@housedown.com",
        "phone": "+1 (927) 469-3271",
        "address": "839 Jewel Street, Gallina, Florida, 5039",
        "registered": "2015-05-24T12:34:03 -06:-30",
        "latitude": 15.601911,
        "longitude": 147.461601,
        "friends": [
            {
                "id": 0,
                "name": "Stephanie Frazier"
            },
            {
                "id": 1,
                "name": "Susanna Taylor"
            },
            {
                "id": 2,
                "name": "Dorthy Giles"
            }
        ],
        "greeting": "Hello, Dale Park! You have 8 unread messages."
    },
    {
        "index": 10,
        "isActive": true,
        "age": 39,
        "name": "Vivian Garrett",
        "company": "POLARIA",
        "email": "viviangarrett@polaria.com",
        "phone": "+1 (849) 582-2011",
        "address": "516 Veronica Place, Gibsonia, Puerto Rico, 1181",
        "registered": "2019-12-10T03:13:13 -06:-30",
        "latitude": -63.763179,
        "longitude": -78.187387,
        "friends": [
            {
                "id": 0,
                "name": "Alice Green"
            },
            {
                "id": 1,
                "name": "Stefanie Byers"
            },
            {
                "id": 2,
                "name": "Gutierrez Bradshaw"
            }
        ],
        "greeting": "Hello, Vivian Garrett! You have 3 unread messages."
    },
    {
        "index": 11,
        "isActive": false,
        "age": 38,
        "name": "Boone Booth",
        "company": "TELEQUIET",
        "email": "boonebooth@telequiet.com",
        "phone": "+1 (972) 599-2847",
        "address": "775 Moore Street, Romeville, South Carolina, 2391",
        "registered": "2015-11-23T11:06:35 -06:-30",
        "latitude": -34.06141,
        "longitude": 94.750716,
        "friends": [
            {
                "id": 0,
                "name": "Estrada Buck"
            },
            {
                "id": 1,
                "name": "Dudley Lyons"
            },
            {
                "id": 2,
                "name": "Deanna Aguilar"
            }
        ],
        "greeting": "Hello, Boone Booth! You have 2 unread messages."
    },
    {
        "index": 12,
        "isActive": false,
        "age": 34,
        "name": "Wallace Middleton",
        "company": "PARLEYNET",
        "email": "wallacemiddleton@parleynet.com",
        "phone": "+1 (954) 494-2530",
        "address": "970 Woodside Avenue, Wilmington, Louisiana, 6444",
        "registered": "2017-03-25T07:06:25 -06:-30",
        "latitude": 40.158559,
        "longitude": 148.252696,
        "friends": [
            {
                "id": 0,
                "name": "Millicent Walker"
            },
            {
                "id": 1,
                "name": "Sykes Oneil"
            },
            {
                "id": 2,
                "name": "Katharine Todd"
            }
        ],
        "greeting": "Hello, Wallace Middleton! You have 7 unread messages."
    },
    {
        "index": 13,
        "isActive": false,
        "age": 30,
        "name": "Pearl Rhodes",
        "company": "PAPRICUT",
        "email": "pearlrhodes@papricut.com",
        "phone": "+1 (830) 474-3565",
        "address": "838 Highland Avenue, Cavalero, Virgin Islands, 1710",
        "registered": "2020-08-26T02:49:28 -06:-30",
        "latitude": 61.175291,
        "longitude": -23.657494,
        "friends": [
            {
                "id": 0,
                "name": "White Quinn"
            },
            {
                "id": 1,
                "name": "Madeline Benjamin"
            },
            {
                "id": 2,
                "name": "Jody Clayton"
            }
        ],
        "greeting": "Hello, Pearl Rhodes! You have 8 unread messages."
    },
    {
        "index": 14,
        "isActive": true,
        "age": 29,
        "name": "Lourdes Stewart",
        "company": "SULFAX",
        "email": "lourdesstewart@sulfax.com",
        "phone": "+1 (950) 416-3330",
        "address": "908 Louisiana Avenue, Stonybrook, Oklahoma, 2107",
        "registered": "2015-04-03T12:00:16 -06:-30",
        "latitude": -42.973402,
        "longitude": 24.300425,
        "friends": [
            {
                "id": 0,
                "name": "Krystal Livingston"
            },
            {
                "id": 1,
                "name": "Eunice Tanner"
            },
            {
                "id": 2,
                "name": "Stone Lang"
            }
        ],
        "greeting": "Hello, Lourdes Stewart! You have 7 unread messages."
    },
    {
        "index": 15,
        "isActive": true,
        "age": 26,
        "name": "Alexandra Alston",
        "company": "BITENDREX",
        "email": "alexandraalston@bitendrex.com",
        "phone": "+1 (907) 497-2047",
        "address": "384 Pioneer Street, Brady, Washington, 732",
        "registered": "2020-04-25T09:36:28 -06:-30",
        "latitude": -64.235174,
        "longitude": 73.141536,
        "friends": [
            {
                "id": 0,
                "name": "Lindsey Blevins"
            },
            {
                "id": 1,
                "name": "Peck Compton"
            },
            {
                "id": 2,
                "name": "Lucia Edwards"
            }
        ],
        "greeting": "Hello, Alexandra Alston! You have 3 unread messages."
    },
    {
        "index": 16,
        "isActive": true,
        "age": 23,
        "name": "Gonzalez Crawford",
        "company": "KINDALOO",
        "email": "gonzalezcrawford@kindaloo.com",
        "phone": "+1 (912) 472-2890",
        "address": "453 Montague Street, Haring, Utah, 1442",
        "registered": "2020-11-20T10:21:44 -06:-30",
        "latitude": 76.224735,
        "longitude": 151.726463,
        "friends": [
            {
                "id": 0,
                "name": "Pittman Vincent"
            },
            {
                "id": 1,
                "name": "Wade Parrish"
            },
            {
                "id": 2,
                "name": "Briggs Kane"
            }
        ],
        "greeting": "Hello, Gonzalez Crawford! You have 2 unread messages."
    },
    {
        "index": 17,
        "isActive": true,
        "age": 30,
        "name": "Madelyn Fisher",
        "company": "QUIZKA",
        "email": "madelynfisher@quizka.com",
        "phone": "+1 (800) 566-3440",
        "address": "285 Navy Street, Wacissa, Delaware, 3991",
        "registered": "2016-06-13T08:09:13 -06:-30",
        "latitude": -57.299882,
        "longitude": -142.49021,
        "friends": [
            {
                "id": 0,
                "name": "Conner Orr"
            },
            {
                "id": 1,
                "name": "Queen Turner"
            },
            {
                "id": 2,
                "name": "Bonnie Bishop"
            }
        ],
        "greeting": "Hello, Madelyn Fisher! You have 2 unread messages."
    },
    {
        "index": 18,
        "isActive": false,
        "age": 40,
        "name": "Graham Mathews",
        "company": "RECRISYS",
        "email": "grahammathews@recrisys.com",
        "phone": "+1 (824) 559-2113",
        "address": "927 Kings Hwy, Mahtowa, Illinois, 3779",
        "registered": "2015-06-27T05:42:35 -06:-30",
        "latitude": -49.946568,
        "longitude": -140.349998,
        "friends": [
            {
                "id": 0,
                "name": "Samantha Navarro"
            },
            {
                "id": 1,
                "name": "Osborne Cervantes"
            },
            {
                "id": 2,
                "name": "Linda Vazquez"
            }
        ],
        "greeting": "Hello, Graham Mathews! You have 6 unread messages."
    },
    {
        "index": 19,
        "isActive": true,
        "age": 30,
        "name": "Deana Dyer",
        "company": "KAGGLE",
        "email": "deanadyer@kaggle.com",
        "phone": "+1 (950) 586-3425",
        "address": "246 Ross Street, Grandview, West Virginia, 2893",
        "registered": "2020-03-01T11:08:44 -06:-30",
        "latitude": -88.362696,
        "longitude": -112.398312,
        "friends": [
            {
                "id": 0,
                "name": "Bowers Delacruz"
            },
            {
                "id": 1,
                "name": "Holman Hunter"
            },
            {
                "id": 2,
                "name": "Shaw Kaufman"
            }
        ],
        "greeting": "Hello, Deana Dyer! You have 10 unread messages."
    },
    {
        "index": 20,
        "isActive": false,
        "age": 32,
        "name": "Washington Hardy",
        "company": "IZZBY",
        "email": "washingtonhardy@izzby.com",
        "phone": "+1 (940) 434-3062",
        "address": "426 Catherine Street, Stewartville, Wisconsin, 1453",
        "registered": "2017-03-19T05:31:22 -06:-30",
        "latitude": -58.245534,
        "longitude": -101.228352,
        "friends": [
            {
                "id": 0,
                "name": "Delacruz Cardenas"
            },
            {
                "id": 1,
                "name": "Wilcox Hess"
            },
            {
                "id": 2,
                "name": "Hansen Patton"
            }
        ],
        "greeting": "Hello, Washington Hardy! You have 5 unread messages."
    },
    {
        "index": 21,
        "isActive": true,
        "age": 36,
        "name": "Dina Fleming",
        "company": "DAISU",
        "email": "dinafleming@daisu.com",
        "phone": "+1 (909) 526-3407",
        "address": "545 Howard Place, Dupuyer, Missouri, 3924",
        "registered": "2018-06-25T05:19:29 -06:-30",
        "latitude": -16.320738,
        "longitude": -127.521755,
        "friends": [
            {
                "id": 0,
                "name": "Jeanette Simmons"
            },
            {
                "id": 1,
                "name": "Burris Wilkinson"
            },
            {
                "id": 2,
                "name": "Allison Hanson"
            }
        ],
        "greeting": "Hello, Dina Fleming! You have 4 unread messages."
    },
    {
        "index": 22,
        "isActive": false,
        "age": 39,
        "name": "Rice Marks",
        "company": "COMTRAK",
        "email": "ricemarks@comtrak.com",
        "phone": "+1 (922) 464-2968",
        "address": "552 Havemeyer Street, Vaughn, Georgia, 855",
        "registered": "2018-02-08T08:18:57 -06:-30",
        "latitude": -65.882451,
        "longitude": 137.393292,
        "friends": [
            {
                "id": 0,
                "name": "Monique Austin"
            },
            {
                "id": 1,
                "name": "Evangelina Baldwin"
            },
            {
                "id": 2,
                "name": "Huff Rivers"
            }
        ],
        "greeting": "Hello, Rice Marks! You have 5 unread messages."
    },
    {
        "index": 23,
        "isActive": true,
        "age": 31,
        "name": "Walker Cooper",
        "company": "SULTRAXIN",
        "email": "walkercooper@sultraxin.com",
        "phone": "+1 (808) 574-2939",
        "address": "602 Emerson Place, Greenbackville, Montana, 5893",
        "registered": "2020-07-04T06:35:29 -06:-30",
        "latitude": -24.709668,
        "longitude": -136.623337,
        "friends": [
            {
                "id": 0,
                "name": "Darcy Garner"
            },
            {
                "id": 1,
                "name": "Blackburn Young"
            },
            {
                "id": 2,
                "name": "Hurst Madden"
            }
        ],
        "greeting": "Hello, Walker Cooper! You have 1 unread messages."
    },
    {
        "index": 24,
        "isActive": false,
        "age": 36,
        "name": "Wilkins James",
        "company": "AQUASURE",
        "email": "wilkinsjames@aquasure.com",
        "phone": "+1 (841) 503-2550",
        "address": "679 Laurel Avenue, Rowe, Alabama, 6296",
        "registered": "2018-07-03T07:24:01 -06:-30",
        "latitude": 57.078909,
        "longitude": 128.045634,
        "friends": [
            {
                "id": 0,
                "name": "Mullins Wilson"
            },
            {
                "id": 1,
                "name": "Horne Shepherd"
            },
            {
                "id": 2,
                "name": "Kate Richards"
            }
        ],
        "greeting": "Hello, Wilkins James! You have 7 unread messages."
    },
    {
        "index": 25,
        "isActive": true,
        "age": 31,
        "name": "Clark Roman",
        "company": "XEREX",
        "email": "clarkroman@xerex.com",
        "phone": "+1 (813) 587-2755",
        "address": "396 Lawn Court, Herbster, Colorado, 8341",
        "registered": "2015-06-13T06:44:51 -06:-30",
        "latitude": -43.614055,
        "longitude": 125.243956,
        "friends": [
            {
                "id": 0,
                "name": "Lorrie Murphy"
            },
            {
                "id": 1,
                "name": "Nunez Reese"
            },
            {
                "id": 2,
                "name": "Mcfarland Colon"
            }
        ],
        "greeting": "Hello, Clark Roman! You have 6 unread messages."
    },
    {
        "index": 26,
        "isActive": false,
        "age": 25,
        "name": "Shelia Albert",
        "company": "ORBALIX",
        "email": "sheliaalbert@orbalix.com",
        "phone": "+1 (808) 523-2012",
        "address": "558 Vandervoort Place, Waiohinu, Nebraska, 6267",
        "registered": "2021-06-08T10:29:53 -06:-30",
        "latitude": 32.089129,
        "longitude": 34.656837,
        "friends": [
            {
                "id": 0,
                "name": "Angela Joyce"
            },
            {
                "id": 1,
                "name": "Figueroa England"
            },
            {
                "id": 2,
                "name": "Bobbie Petersen"
            }
        ],
        "greeting": "Hello, Shelia Albert! You have 6 unread messages."
    },
    {
        "index": 27,
        "isActive": true,
        "age": 21,
        "name": "Hart Sosa",
        "company": "MALATHION",
        "email": "hartsosa@malathion.com",
        "phone": "+1 (931) 468-3792",
        "address": "102 Varick Avenue, Eastvale, Pennsylvania, 5571",
        "registered": "2016-03-19T06:24:59 -06:-30",
        "latitude": -6.178786,
        "longitude": 119.998894,
        "friends": [
            {
                "id": 0,
                "name": "Landry Whitney"
            },
            {
                "id": 1,
                "name": "Preston Christian"
            },
            {
                "id": 2,
                "name": "Deanne Bean"
            }
        ],
        "greeting": "Hello, Hart Sosa! You have 5 unread messages."
    },
    {
        "index": 28,
        "isActive": false,
        "age": 26,
        "name": "Browning Salas",
        "company": "AVENETRO",
        "email": "browningsalas@avenetro.com",
        "phone": "+1 (980) 562-2993",
        "address": "264 Pierrepont Street, Fillmore, Mississippi, 272",
        "registered": "2020-04-26T06:50:22 -06:-30",
        "latitude": 43.020068,
        "longitude": -49.737506,
        "friends": [
            {
                "id": 0,
                "name": "Rocha Hampton"
            },
            {
                "id": 1,
                "name": "Byrd Decker"
            },
            {
                "id": 2,
                "name": "Lora Duffy"
            }
        ],
        "greeting": "Hello, Browning Salas! You have 6 unread messages."
    },
    {
        "index": 29,
        "isActive": true,
        "age": 28,
        "name": "Hardin Cummings",
        "company": "BUZZWORKS",
        "email": "hardincummings@buzzworks.com",
        "phone": "+1 (941) 486-2500",
        "address": "900 Grand Avenue, Sena, North Carolina, 9983",
        "registered": "2021-09-13T09:12:55 -06:-30",
        "latitude": -69.722114,
        "longitude": 171.617778,
        "friends": [
            {
                "id": 0,
                "name": "Montgomery Chaney"
            },
            {
                "id": 1,
                "name": "Nicholson Velez"
            },
            {
                "id": 2,
                "name": "Odom Bartlett"
            }
        ],
        "greeting": "Hello, Hardin Cummings! You have 8 unread messages."
    },
    {
        "index": 30,
        "isActive": true,
        "age": 32,
        "name": "Bennett Vaughn",
        "company": "BUZZMAKER",
        "email": "bennettvaughn@buzzmaker.com",
        "phone": "+1 (891) 507-2813",
        "address": "539 Noel Avenue, Bowden, Alaska, 2990",
        "registered": "2020-10-06T10:11:43 -06:-30",
        "latitude": 81.39999,
        "longitude": 41.856607,
        "friends": [
            {
                "id": 0,
                "name": "Savage Stevens"
            },
            {
                "id": 1,
                "name": "Rachel Rowe"
            },
            {
                "id": 2,
                "name": "Parker Irwin"
            }
        ],
        "greeting": "Hello, Bennett Vaughn! You have 3 unread messages."
    },
    {
        "index": 31,
        "isActive": false,
        "age": 24,
        "name": "Jackie Huffman",
        "company": "ECRATIC",
        "email": "jackiehuffman@ecratic.com",
        "phone": "+1 (904) 431-2008",
        "address": "464 Conselyea Street, Hessville, Iowa, 8477",
        "registered": "2021-05-31T01:18:24 -06:-30",
        "latitude": 9.583226,
        "longitude": 139.11273,
        "friends": [
            {
                "id": 0,
                "name": "Vang Figueroa"
            },
            {
                "id": 1,
                "name": "Fannie Daniels"
            },
            {
                "id": 2,
                "name": "Cannon Donaldson"
            }
        ],
        "greeting": "Hello, Jackie Huffman! You have 3 unread messages."
    },
    {
        "index": 32,
        "isActive": true,
        "age": 26,
        "name": "Carlson Schmidt",
        "company": "COMCUBINE",
        "email": "carlsonschmidt@comcubine.com",
        "phone": "+1 (865) 508-2764",
        "address": "180 Stillwell Avenue, Murillo, North Dakota, 3916",
        "registered": "2019-10-30T01:52:02 -06:-30",
        "latitude": 59.531132,
        "longitude": -4.463578,
        "friends": [
            {
                "id": 0,
                "name": "Christy Head"
            },
            {
                "id": 1,
                "name": "Noel Ryan"
            },
            {
                "id": 2,
                "name": "Christina Mcbride"
            }
        ],
        "greeting": "Hello, Carlson Schmidt! You have 4 unread messages."
    },
    {
        "index": 33,
        "isActive": false,
        "age": 34,
        "name": "Carissa Rice",
        "company": "COMTRAIL",
        "email": "carissarice@comtrail.com",
        "phone": "+1 (833) 538-3939",
        "address": "831 Hubbard Place, Gloucester, Minnesota, 1017",
        "registered": "2020-05-18T04:00:14 -06:-30",
        "latitude": -82.871122,
        "longitude": 82.043643,
        "friends": [
            {
                "id": 0,
                "name": "Kerr Richard"
            },
            {
                "id": 1,
                "name": "Delores Lloyd"
            },
            {
                "id": 2,
                "name": "Gregory Santiago"
            }
        ],
        "greeting": "Hello, Carissa Rice! You have 3 unread messages."
    },
    {
        "index": 34,
        "isActive": false,
        "age": 26,
        "name": "Whitney Simpson",
        "company": "ZIPAK",
        "email": "whitneysimpson@zipak.com",
        "phone": "+1 (847) 463-3245",
        "address": "132 Glenwood Road, Dixonville, Connecticut, 9416",
        "registered": "2017-09-20T10:13:15 -06:-30",
        "latitude": -34.649596,
        "longitude": 137.627143,
        "friends": [
            {
                "id": 0,
                "name": "Sue Gallagher"
            },
            {
                "id": 1,
                "name": "Effie Hendricks"
            },
            {
                "id": 2,
                "name": "Lillie Schwartz"
            }
        ],
        "greeting": "Hello, Whitney Simpson! You have 5 unread messages."
    },
    {
        "index": 35,
        "isActive": true,
        "age": 26,
        "name": "Mallory Harmon",
        "company": "STRALOY",
        "email": "malloryharmon@straloy.com",
        "phone": "+1 (975) 403-2376",
        "address": "192 Norwood Avenue, Southmont, New York, 7744",
        "registered": "2015-09-29T03:27:29 -06:-30",
        "latitude": -9.627082,
        "longitude": 28.603756,
        "friends": [
            {
                "id": 0,
                "name": "Bartlett White"
            },
            {
                "id": 1,
                "name": "Loretta Mcmahon"
            },
            {
                "id": 2,
                "name": "Cobb Gilmore"
            }
        ],
        "greeting": "Hello, Mallory Harmon! You have 7 unread messages."
    },
    {
        "index": 36,
        "isActive": true,
        "age": 32,
        "name": "Stuart Palmer",
        "company": "GRACKER",
        "email": "stuartpalmer@gracker.com",
        "phone": "+1 (937) 450-3019",
        "address": "681 Anna Court, Floris, New Hampshire, 1571",
        "registered": "2020-04-14T09:33:19 -06:-30",
        "latitude": 8.466233,
        "longitude": 156.909565,
        "friends": [
            {
                "id": 0,
                "name": "Lambert Rocha"
            },
            {
                "id": 1,
                "name": "Lela Beach"
            },
            {
                "id": 2,
                "name": "Bridges Hutchinson"
            }
        ],
        "greeting": "Hello, Stuart Palmer! You have 5 unread messages."
    },
    {
        "index": 37,
        "isActive": true,
        "age": 31,
        "name": "Mejia Contreras",
        "company": "ENDIPINE",
        "email": "mejiacontreras@endipine.com",
        "phone": "+1 (979) 488-2632",
        "address": "785 Wallabout Street, Floriston, Oregon, 7517",
        "registered": "2017-11-01T05:11:42 -06:-30",
        "latitude": -2.710411,
        "longitude": 62.491077,
        "friends": [
            {
                "id": 0,
                "name": "Vickie Love"
            },
            {
                "id": 1,
                "name": "Acosta Hines"
            },
            {
                "id": 2,
                "name": "Tate Davidson"
            }
        ],
        "greeting": "Hello, Mejia Contreras! You have 6 unread messages."
    },
    {
        "index": 38,
        "isActive": false,
        "age": 22,
        "name": "Herrera Roberson",
        "company": "TOYLETRY",
        "email": "herreraroberson@toyletry.com",
        "phone": "+1 (965) 494-2480",
        "address": "951 Woodrow Court, Drummond, Marshall Islands, 8739",
        "registered": "2014-05-07T03:44:18 -06:-30",
        "latitude": 22.195972,
        "longitude": 95.914649,
        "friends": [
            {
                "id": 0,
                "name": "Martinez Whitaker"
            },
            {
                "id": 1,
                "name": "Mcmillan Hardin"
            },
            {
                "id": 2,
                "name": "Reilly Thomas"
            }
        ],
        "greeting": "Hello, Herrera Roberson! You have 1 unread messages."
    },
    {
        "index": 39,
        "isActive": false,
        "age": 33,
        "name": "Vega Larson",
        "company": "SCENTY",
        "email": "vegalarson@scenty.com",
        "phone": "+1 (926) 521-2375",
        "address": "277 Bank Street, Matheny, Maryland, 9327",
        "registered": "2016-02-22T10:56:33 -06:-30",
        "latitude": 35.044265,
        "longitude": -91.681561,
        "friends": [
            {
                "id": 0,
                "name": "Pat Williamson"
            },
            {
                "id": 1,
                "name": "Jillian Goff"
            },
            {
                "id": 2,
                "name": "Charles Perkins"
            }
        ],
        "greeting": "Hello, Vega Larson! You have 10 unread messages."
    },
    {
        "index": 40,
        "isActive": true,
        "age": 29,
        "name": "Jewell Brennan",
        "company": "DEVILTOE",
        "email": "jewellbrennan@deviltoe.com",
        "phone": "+1 (802) 495-3462",
        "address": "837 Gaylord Drive, Thatcher, Federated States Of Micronesia, 3404",
        "registered": "2020-05-27T04:23:54 -06:-30",
        "latitude": -58.286962,
        "longitude": 27.253281,
        "friends": [
            {
                "id": 0,
                "name": "Cameron Finley"
            },
            {
                "id": 1,
                "name": "Miriam Petty"
            },
            {
                "id": 2,
                "name": "Delgado Cleveland"
            }
        ],
        "greeting": "Hello, Jewell Brennan! You have 7 unread messages."
    },
    {
        "index": 41,
        "isActive": true,
        "age": 37,
        "name": "Jerry Watkins",
        "company": "SQUISH",
        "email": "jerrywatkins@squish.com",
        "phone": "+1 (807) 436-2041",
        "address": "783 Devon Avenue, Russellville, Vermont, 9880",
        "registered": "2020-05-01T02:40:00 -06:-30",
        "latitude": -34.490517,
        "longitude": 15.186496,
        "friends": [
            {
                "id": 0,
                "name": "Fulton Trujillo"
            },
            {
                "id": 1,
                "name": "Baird Estrada"
            },
            {
                "id": 2,
                "name": "Carla Mullen"
            }
        ],
        "greeting": "Hello, Jerry Watkins! You have 7 unread messages."
    },
    {
        "index": 42,
        "isActive": false,
        "age": 33,
        "name": "Callahan Bridges",
        "company": "ADORNICA",
        "email": "callahanbridges@adornica.com",
        "phone": "+1 (880) 536-3358",
        "address": "348 Harbor Court, Townsend, Kansas, 3381",
        "registered": "2018-07-07T08:36:11 -06:-30",
        "latitude": -35.802608,
        "longitude": -44.963881,
        "friends": [
            {
                "id": 0,
                "name": "Briana Baxter"
            },
            {
                "id": 1,
                "name": "Cheri Ramos"
            },
            {
                "id": 2,
                "name": "Loraine Ballard"
            }
        ],
        "greeting": "Hello, Callahan Bridges! You have 8 unread messages."
    }
]